(module A100_10TE (layer F.Cu) (tedit 636E1A03)
  (fp_text reference REF** (at 0 0.5) (layer F.SilkS)
    (effects (font (size 1 1) (thickness 0.15)))
  )
  (fp_text value A100_10TE (at 0 -0.5) (layer F.Fab)
    (effects (font (size 1 1) (thickness 0.15)))
  )
  (fp_line (start 43.06 -127.1) (end 43.06 -123.9) (layer F.Fab) (width 0.1))
  (fp_line (start 41.46 -125.5) (end 44.66 -125.5) (layer F.Fab) (width 0.1))
  (fp_circle (center 43.06 -125.5) (end 44.66 -125.5) (layer F.Fab) (width 0.1))
  (fp_line (start 41.46 -3) (end 44.66 -3) (layer F.Fab) (width 0.1))
  (fp_line (start 43.06 -4.6) (end 43.06 -1.4) (layer F.Fab) (width 0.1))
  (fp_circle (center 43.06 -3) (end 44.66 -3) (layer F.Fab) (width 0.1))
  (fp_line (start 5.9 -3) (end 9.1 -3) (layer F.Fab) (width 0.1))
  (fp_line (start 7.5 -4.6) (end 7.5 -1.4) (layer F.Fab) (width 0.1))
  (fp_line (start 7.5 -127.1) (end 7.5 -123.9) (layer F.Fab) (width 0.1))
  (fp_line (start 5.9 -125.5) (end 9.1 -125.5) (layer F.Fab) (width 0.1))
  (fp_circle (center 7.5 -125.5) (end 9.1 -125.5) (layer F.Fab) (width 0.1))
  (fp_circle (center 7.5 -3) (end 9.1 -3) (layer F.Fab) (width 0.1))
  (fp_line (start 0 0) (end 50.5 0) (layer F.Fab) (width 0.12))
  (fp_line (start 50.5 0) (end 50.5 -128.5) (layer F.Fab) (width 0.12))
  (fp_line (start 50.5 -128.5) (end 0 -128.5) (layer F.Fab) (width 0.12))
  (fp_line (start 0 -128.5) (end 0 0) (layer F.Fab) (width 0.12))
  (fp_line (start 0 -8.25) (end 50.5 -8.25) (layer F.Fab) (width 0.12))
  (fp_line (start 0 -120.25) (end 50.5 -120.25) (layer F.Fab) (width 0.12))
  (fp_line (start 0 -64.25) (end 50.5 -64.25) (layer F.Fab) (width 0.1))
  (pad "" np_thru_hole circle (at 7.5 -3) (size 3.2 3.2) (drill 3.2) (layers *.Cu *.Mask))
  (pad "" np_thru_hole circle (at 7.5 -125.5) (size 3.2 3.2) (drill 3.2) (layers *.Cu *.Mask))
  (pad "" np_thru_hole circle (at 43.06 -3) (size 3.2 3.2) (drill 3.2) (layers *.Cu *.Mask))
  (pad "" np_thru_hole circle (at 43.06 -125.5) (size 3.2 3.2) (drill 3.2) (layers *.Cu *.Mask))
)
