(footprint "Cliff_CL1384" (version 20211014) (generator pcbnew)
  (layer "F.Cu")
  (tedit 62985C96)
  (attr through_hole)
  (fp_text reference "REF**" (at -4 -8.2) (layer "F.SilkS")
    (effects (font (size 1 1) (thickness 0.15)))
    (tstamp bc213bfb-fe3a-4b53-98ab-0948503dcdbe)
  )
  (fp_text value "Cliff_CL1384" (at 0 -0.5) (layer "F.Fab")
    (effects (font (size 1 1) (thickness 0.15)))
    (tstamp ad51bc28-cd93-4e93-90cf-b19b9ea074fd)
  )
  (fp_line (start 6.3 5.5) (end -6.3 5.5) (layer "F.CrtYd") (width 0.05) (tstamp 17514820-65c5-4db7-8e7c-9fb612350ba1))
  (fp_line (start 6.3 -9.1) (end 6.3 5.5) (layer "F.CrtYd") (width 0.05) (tstamp 3e7d12ab-48cf-46c3-b996-a66ab482b899))
  (fp_line (start -6.3 -9.1) (end 6.3 -9.1) (layer "F.CrtYd") (width 0.05) (tstamp b9bd16c5-781d-4590-9333-526eac08991b))
  (fp_line (start -6.3 5.5) (end -6.3 -9.1) (layer "F.CrtYd") (width 0.05) (tstamp db0f1351-2831-4883-9bc5-dd200ba3d1cb))
  (fp_line (start 4 5) (end -4 5) (layer "F.Fab") (width 0.1) (tstamp 54ffdbb0-a0dc-4bd0-b261-d0d798a10680))
  (fp_line (start -4 5) (end -4 0) (layer "F.Fab") (width 0.1) (tstamp 9e7e3de7-13e5-4cf0-8868-6414a17c814b))
  (fp_line (start -4 0) (end -5.4 0) (layer "F.Fab") (width 0.1) (tstamp a796db65-7217-45c0-9df9-bcc5c74f55e3))
  (fp_line (start -5.4 0) (end -5.4 -8.6) (layer "F.Fab") (width 0.1) (tstamp aeb633d4-b3ad-49de-b532-96b24de5396f))
  (fp_line (start 5.4 -8.6) (end 5.4 0) (layer "F.Fab") (width 0.1) (tstamp ca2ba6e6-990b-4cb6-97d4-4708ffdf6023))
  (fp_line (start 4 0) (end 4 5) (layer "F.Fab") (width 0.1) (tstamp d9183aa6-7e6f-42ee-9b33-16815e80d9d6))
  (fp_line (start 5.4 0) (end 4 0) (layer "F.Fab") (width 0.1) (tstamp dc7d78fb-a104-4a43-8ab4-410bf5717db3))
  (fp_line (start -5.4 -8.6) (end 5.4 -8.6) (layer "F.Fab") (width 0.1) (tstamp dd70fda0-1914-4554-9745-f3af0f11fba2))
  (pad "S" thru_hole circle (at 4.7 -2.4) (size 2 2) (drill 1.4) (layers *.Cu *.Mask) (tstamp bd66ce2c-e039-4251-9ff7-7d2d61565178))
  (pad "SN" thru_hole circle (at -4.7 -2.4) (size 2 2) (drill 1.4) (layers *.Cu *.Mask) (tstamp 12a71d42-a694-409c-9004-e63fd7e3bc1c))
  (pad "T" thru_hole circle (at 4.7 -6.2) (size 2 2) (drill 1.4) (layers *.Cu *.Mask) (tstamp 0a2273c0-eabf-4a46-b11b-d02a0a586c35))
  (pad "TN" thru_hole circle (at -4.7 -6.2) (size 2 2) (drill 1.4) (layers *.Cu *.Mask) (tstamp 07994c25-6fdb-42c9-9f7f-d1548ff3fbed))
)
