(footprint "C_0204_0510Metric_NoSilk" (version 20211014) (generator pcbnew)
  (layer "F.Cu")
  (tedit 5F68FEEE)
  (descr "Capacitor SMD 0402 (1005 Metric), square (rectangular) end terminal, IPC_7351 nominal, (Body size source: IPC-SM-782 page 76, https://www.pcb-3d.com/wordpress/wp-content/uploads/ipc-sm-782a_amendment_1_and_2.pdf), generated with kicad-footprint-generator")
  (tags "capacitor")
  (solder_mask_margin 0.05)
  (attr smd)
  (fp_text reference "REF**" (at 0 -1.16) (layer "F.SilkS") hide
    (effects (font (size 1 1) (thickness 0.15)))
    (tstamp 3f001d39-98c9-450a-a6f0-b7475527fbd7)
  )
  (fp_text value "C_0402_1005Metric" (at 0 1.16) (layer "F.Fab")
    (effects (font (size 1 1) (thickness 0.15)))
    (tstamp 7ef18d46-39df-486f-9543-b00228cf866a)
  )
  (fp_text user "${REFERENCE}" (at 0 0) (layer "F.Fab")
    (effects (font (size 0.25 0.25) (thickness 0.04)))
    (tstamp 5d9a85df-c718-4dd6-9c1c-7cf078103b70)
  )
  (fp_line (start -0.4 0.65) (end -0.4 -0.65) (layer "F.CrtYd") (width 0.05) (tstamp 0f646a94-faea-4a50-8b80-909d26d6d7a0))
  (fp_line (start 0.4 -0.65) (end 0.4 0.65) (layer "F.CrtYd") (width 0.05) (tstamp 40007d5f-c471-4d2b-87f0-dfa1629069fb))
  (fp_line (start 0.4 0.65) (end -0.4 0.65) (layer "F.CrtYd") (width 0.05) (tstamp 6897dba4-f95f-426a-ae14-d4aed1cd887f))
  (fp_line (start -0.4 -0.65) (end 0.4 -0.65) (layer "F.CrtYd") (width 0.05) (tstamp 6aa26098-9339-4279-9a36-893fdd4c6950))
  (fp_line (start -0.25 -0.5) (end 0.25 -0.5) (layer "F.Fab") (width 0.1) (tstamp 3b194c04-55c2-4668-b84d-8f5aacd704a2))
  (fp_line (start 0.25 -0.5) (end 0.25 0.5) (layer "F.Fab") (width 0.1) (tstamp 3c7e7f28-d67d-4e18-8c13-2a82b2c60f01))
  (fp_line (start 0.25 0.5) (end -0.25 0.5) (layer "F.Fab") (width 0.1) (tstamp 8a7cad66-4840-4328-b7bf-cbbc635c7362))
  (fp_line (start -0.25 0.5) (end -0.25 -0.5) (layer "F.Fab") (width 0.1) (tstamp fe53c845-ac3c-48e4-9f37-36da777bc994))
  (pad "1" smd roundrect (at -0.225 0) (size 0.25 1) (layers "F.Cu" "F.Paste" "F.Mask") (roundrect_rratio 0.25) (tstamp f0d6bdbe-8dea-4984-9c52-f76168ceed26))
  (pad "2" smd roundrect (at 0.225 0) (size 0.25 1) (layers "F.Cu" "F.Paste" "F.Mask") (roundrect_rratio 0.25) (tstamp 07bccb1b-781c-4561-a379-63c349828818))
  (model "${KICAD6_3DMODEL_DIR}/Capacitor_SMD.3dshapes/C_0402_1005Metric.wrl"
    (offset (xyz 0 0 0))
    (scale (xyz 1 1 1))
    (rotate (xyz 0 0 0))
  )
)
