(kicad_symbol_lib (version 20211014) (generator kicad_symbol_editor)
  (symbol "LiteOn_LTST-G353CEGB7W" (in_bom yes) (on_board yes)
    (property "Reference" "U" (id 0) (at -7.62 5.08 0)
      (effects (font (size 1.27 1.27)) (justify left))
    )
    (property "Value" "LiteOn_LTST-G353CEGB7W" (id 1) (at 0 -5.08 0)
      (effects (font (size 1.27 1.27)))
    )
    (property "Footprint" "" (id 2) (at 0 0 0)
      (effects (font (size 1.27 1.27)) hide)
    )
    (property "Datasheet" "" (id 3) (at 0 0 0)
      (effects (font (size 1.27 1.27)) hide)
    )
    (symbol "LiteOn_LTST-G353CEGB7W_0_0"
      (text "RGB" (at 1.651 0.254 900)
        (effects (font (size 0.762 0.762)))
      )
    )
    (symbol "LiteOn_LTST-G353CEGB7W_0_1"
      (rectangle (start -7.62 3.81) (end 7.62 -3.81)
        (stroke (width 0.1524) (type default) (color 0 0 0 0))
        (fill (type none))
      )
      (polyline
        (pts
          (xy 0 -0.762)
          (xy 0 -0.254)
        )
        (stroke (width 0) (type default) (color 0 0 0 0))
        (fill (type none))
      )
      (polyline
        (pts
          (xy 1.016 -0.762)
          (xy 1.016 -0.254)
        )
        (stroke (width 0) (type default) (color 0 0 0 0))
        (fill (type none))
      )
      (polyline
        (pts
          (xy 1.016 2.667)
          (xy 1.016 0.635)
        )
        (stroke (width 0) (type default) (color 0 0 0 0))
        (fill (type none))
      )
      (polyline
        (pts
          (xy -1.524 1.651)
          (xy 1.016 1.651)
          (xy 1.524 1.651)
        )
        (stroke (width 0) (type default) (color 0 0 0 0))
        (fill (type none))
      )
      (polyline
        (pts
          (xy -1.016 0.254)
          (xy 0 -0.762)
          (xy -0.508 -0.762)
        )
        (stroke (width 0) (type default) (color 0 0 0 0))
        (fill (type none))
      )
      (polyline
        (pts
          (xy 0 0.254)
          (xy 1.016 -0.762)
          (xy 0.508 -0.762)
        )
        (stroke (width 0) (type default) (color 0 0 0 0))
        (fill (type none))
      )
      (polyline
        (pts
          (xy -1.016 2.667)
          (xy -1.016 0.635)
          (xy 1.016 1.651)
          (xy -1.016 2.667)
        )
        (stroke (width 0) (type default) (color 0 0 0 0))
        (fill (type none))
      )
    )
    (symbol "LiteOn_LTST-G353CEGB7W_1_1"
      (pin power_in line (at 10.16 -2.54 180) (length 2.54)
        (name "VDD_IC" (effects (font (size 1.27 1.27))))
        (number "1" (effects (font (size 1.27 1.27))))
      )
      (pin power_in line (at 10.16 0 180) (length 2.54)
        (name "VDD" (effects (font (size 1.27 1.27))))
        (number "2" (effects (font (size 1.27 1.27))))
      )
      (pin output line (at 10.16 2.54 180) (length 2.54)
        (name "DOUT" (effects (font (size 1.27 1.27))))
        (number "3" (effects (font (size 1.27 1.27))))
      )
      (pin input line (at -10.16 2.54 0) (length 2.54)
        (name "DIN" (effects (font (size 1.27 1.27))))
        (number "4" (effects (font (size 1.27 1.27))))
      )
      (pin power_in line (at -10.16 0 0) (length 2.54)
        (name "VSS" (effects (font (size 1.27 1.27))))
        (number "5" (effects (font (size 1.27 1.27))))
      )
      (pin input line (at -10.16 -2.54 0) (length 2.54)
        (name "FDIN" (effects (font (size 1.27 1.27))))
        (number "6" (effects (font (size 1.27 1.27))))
      )
    )
  )
)
