(kicad_symbol_lib (version 20220914) (generator kicad_symbol_editor)
  (symbol "AP3401KTTR-G1" (pin_names (offset 1.016)) (in_bom yes) (on_board yes)
    (property "Reference" "U?" (at 0 9.9228 0)
      (effects (font (size 1.27 1.27)))
    )
    (property "Value" "AP3401KTTR-G1" (at 0 7.3859 0)
      (effects (font (size 1.27 1.27)))
    )
    (property "Footprint" "Package_TO_SOT_SMD:SOT-23-6" (at 0 0 0)
      (effects (font (size 1.27 1.27)) hide)
    )
    (property "Datasheet" "" (at 0 0 0)
      (effects (font (size 1.27 1.27)) hide)
    )
    (symbol "AP3401KTTR-G1_0_1"
      (rectangle (start -7.62 6.35) (end 7.62 -6.35)
        (stroke (width 0) (type default))
        (fill (type none))
      )
    )
    (symbol "AP3401KTTR-G1_1_1"
      (pin input line (at -10.16 2.54 0) (length 2.54)
        (name "EN" (effects (font (size 1.27 1.27))))
        (number "1" (effects (font (size 1.27 1.27))))
      )
      (pin power_in line (at -10.16 -5.08 0) (length 2.54)
        (name "GND" (effects (font (size 1.27 1.27))))
        (number "2" (effects (font (size 1.27 1.27))))
      )
      (pin output line (at 10.16 5.08 180) (length 2.54)
        (name "LX" (effects (font (size 1.27 1.27))))
        (number "3" (effects (font (size 1.27 1.27))))
      )
      (pin power_in line (at -10.16 5.08 0) (length 2.54)
        (name "VIN" (effects (font (size 1.27 1.27))))
        (number "4" (effects (font (size 1.27 1.27))))
      )
      (pin open_collector line (at -10.16 -2.54 0) (length 2.54)
        (name "PG" (effects (font (size 1.27 1.27))))
        (number "5" (effects (font (size 1.27 1.27))))
      )
      (pin passive line (at 10.16 -5.08 180) (length 2.54)
        (name "FB" (effects (font (size 1.27 1.27))))
        (number "6" (effects (font (size 1.27 1.27))))
      )
    )
  )
  (symbol "AP63200WU" (in_bom yes) (on_board yes)
    (property "Reference" "U" (at -7.62 12.7 0)
      (effects (font (size 1.27 1.27)))
    )
    (property "Value" "AP63200WU" (at 0 12.7 0)
      (effects (font (size 1.27 1.27)))
    )
    (property "Footprint" "Package_TO_SOT_SMD:TSOT-23-6" (at 0 -22.86 0)
      (effects (font (size 1.27 1.27)) hide)
    )
    (property "Datasheet" "https://www.diodes.com/assets/Datasheets/AP63200-AP63201-AP63203-AP63205.pdf" (at 0 3.81 0)
      (effects (font (size 1.27 1.27)) hide)
    )
    (property "ki_keywords" "2A Buck DC/DC" (at 0 0 0)
      (effects (font (size 1.27 1.27)) hide)
    )
    (property "ki_description" "2A, 500kHz Buck DC/DC Converter, adjustable output voltage, TSOT-23-6" (at 0 0 0)
      (effects (font (size 1.27 1.27)) hide)
    )
    (property "ki_fp_filters" "TSOT?23*" (at 0 0 0)
      (effects (font (size 1.27 1.27)) hide)
    )
    (symbol "AP63200WU_1_1"
      (rectangle (start -7.62 11.43) (end 7.62 -11.43)
        (stroke (width 0.254) (type default))
        (fill (type none))
      )
      (pin input line (at 10.16 -10.16 180) (length 2.54)
        (name "FB" (effects (font (size 1.27 1.27))))
        (number "1" (effects (font (size 1.27 1.27))))
      )
      (pin input line (at -10.16 0 0) (length 2.54)
        (name "EN" (effects (font (size 1.27 1.27))))
        (number "2" (effects (font (size 1.27 1.27))))
      )
      (pin power_in line (at -10.16 10.16 0) (length 2.54)
        (name "IN" (effects (font (size 1.27 1.27))))
        (number "3" (effects (font (size 1.27 1.27))))
      )
      (pin power_in line (at 0 -13.97 90) (length 2.54)
        (name "GND" (effects (font (size 1.27 1.27))))
        (number "4" (effects (font (size 1.27 1.27))))
      )
      (pin output line (at 10.16 0 180) (length 2.54)
        (name "SW" (effects (font (size 1.27 1.27))))
        (number "5" (effects (font (size 1.27 1.27))))
      )
      (pin passive line (at 10.16 10.16 180) (length 2.54)
        (name "BST" (effects (font (size 1.27 1.27))))
        (number "6" (effects (font (size 1.27 1.27))))
      )
    )
  )
  (symbol "DZDH0401DW" (in_bom yes) (on_board yes)
    (property "Reference" "U" (at 0 7.62 0)
      (effects (font (size 1.27 1.27)))
    )
    (property "Value" "DZDH0401DW" (at 0 5.08 0)
      (effects (font (size 1.27 1.27)))
    )
    (property "Footprint" "" (at 0 -1.27 0)
      (effects (font (size 1.27 1.27)) hide)
    )
    (property "Datasheet" "" (at 0 -1.27 0)
      (effects (font (size 1.27 1.27)) hide)
    )
    (symbol "DZDH0401DW_0_1"
      (rectangle (start -7.62 3.81) (end 7.62 -3.81)
        (stroke (width 0) (type default))
        (fill (type none))
      )
    )
    (symbol "DZDH0401DW_1_1"
      (pin passive line (at -10.16 -2.54 0) (length 2.54)
        (name "REF" (effects (font (size 1.27 1.27))))
        (number "2" (effects (font (size 1.27 1.27))))
      )
      (pin passive line (at 10.16 -2.54 180) (length 2.54)
        (name "BIAS" (effects (font (size 1.27 1.27))))
        (number "3" (effects (font (size 1.27 1.27))))
      )
      (pin passive line (at 10.16 2.54 180) (length 2.54)
        (name "SOURCE" (effects (font (size 1.27 1.27))))
        (number "4" (effects (font (size 1.27 1.27))))
      )
      (pin passive line (at -10.16 2.54 0) (length 2.54)
        (name "DRAIN" (effects (font (size 1.27 1.27))))
        (number "6" (effects (font (size 1.27 1.27))))
      )
    )
  )
  (symbol "LM51571" (in_bom yes) (on_board yes)
    (property "Reference" "U" (at -8.89 10.16 0)
      (effects (font (size 1.27 1.27)))
    )
    (property "Value" "LM51571" (at 6.35 -8.89 0)
      (effects (font (size 1.27 1.27)))
    )
    (property "Footprint" "" (at 0 -2.54 0)
      (effects (font (size 1.27 1.27)) hide)
    )
    (property "Datasheet" "" (at 0 -2.54 0)
      (effects (font (size 1.27 1.27)) hide)
    )
    (symbol "LM51571_0_1"
      (rectangle (start -10.16 8.89) (end 10.16 -7.62)
        (stroke (width 0) (type default))
        (fill (type none))
      )
    )
    (symbol "LM51571_1_1"
      (pin power_in line (at -5.08 -12.7 90) (length 5.08)
        (name "PGND" (effects (font (size 1.27 1.27))))
        (number "1" (effects (font (size 1.27 1.27))))
      )
      (pin passive line (at -15.24 -5.08 0) (length 5.08)
        (name "SS" (effects (font (size 1.27 1.27))))
        (number "10" (effects (font (size 1.27 1.27))))
      )
      (pin passive line (at 15.24 -5.08 180) (length 5.08)
        (name "MODE" (effects (font (size 1.27 1.27))))
        (number "11" (effects (font (size 1.27 1.27))))
      )
      (pin output line (at 15.24 7.62 180) (length 5.08)
        (name "SW" (effects (font (size 1.27 1.27))))
        (number "12" (effects (font (size 1.27 1.27))))
      )
      (pin output line (at 15.24 7.62 180) (length 5.08) hide
        (name "SW" (effects (font (size 1.27 1.27))))
        (number "13" (effects (font (size 1.27 1.27))))
      )
      (pin output line (at 15.24 7.62 180) (length 5.08) hide
        (name "SW" (effects (font (size 1.27 1.27))))
        (number "14" (effects (font (size 1.27 1.27))))
      )
      (pin no_connect line (at -5.08 -12.7 90) (length 5.08) hide
        (name "NC" (effects (font (size 1.27 1.27))))
        (number "15" (effects (font (size 1.27 1.27))))
      )
      (pin power_in line (at -5.08 -12.7 90) (length 5.08) hide
        (name "PGND" (effects (font (size 1.27 1.27))))
        (number "16" (effects (font (size 1.27 1.27))))
      )
      (pin power_in line (at 0 -12.7 90) (length 5.08) hide
        (name "EP" (effects (font (size 1.27 1.27))))
        (number "17" (effects (font (size 1.27 1.27))))
      )
      (pin passive line (at -15.24 0 0) (length 5.08)
        (name "VCC" (effects (font (size 1.27 1.27))))
        (number "2" (effects (font (size 1.27 1.27))))
      )
      (pin passive line (at -15.24 7.62 0) (length 5.08)
        (name "BIAS" (effects (font (size 1.27 1.27))))
        (number "3" (effects (font (size 1.27 1.27))))
      )
      (pin open_collector line (at 15.24 -2.54 180) (length 5.08)
        (name "PGOOD" (effects (font (size 1.27 1.27))))
        (number "4" (effects (font (size 1.27 1.27))))
      )
      (pin passive line (at -15.24 -2.54 0) (length 5.08)
        (name "RT" (effects (font (size 1.27 1.27))))
        (number "5" (effects (font (size 1.27 1.27))))
      )
      (pin passive line (at -15.24 2.54 0) (length 5.08)
        (name "UVLO/EN" (effects (font (size 1.27 1.27))))
        (number "6" (effects (font (size 1.27 1.27))))
        (alternate "SYNC/EN" passive line)
      )
      (pin power_in line (at 0 -12.7 90) (length 5.08)
        (name "AGND" (effects (font (size 1.27 1.27))))
        (number "7" (effects (font (size 1.27 1.27))))
      )
      (pin passive line (at 15.24 0 180) (length 5.08)
        (name "COMP" (effects (font (size 1.27 1.27))))
        (number "8" (effects (font (size 1.27 1.27))))
      )
      (pin input line (at 15.24 2.54 180) (length 5.08)
        (name "FB" (effects (font (size 1.27 1.27))))
        (number "9" (effects (font (size 1.27 1.27))))
      )
    )
  )
)
