(footprint "RotaryEncoder_Bourns_PEC11R-4xxxF-Sxxxx" (version 20211014) (generator pcbnew)
  (layer "F.Cu")
  (tedit 6209947B)
  (descr "Bourns rotary encoder, PEC11R, with switch, vertical shaft")
  (tags "rotary encoder")
  (attr through_hole)
  (fp_text reference "REF**" (at 0 -8.9 180) (layer "F.SilkS")
    (effects (font (size 1 1) (thickness 0.15)))
    (tstamp 3ae5af63-9ba1-4712-a2e2-a9714ffe9679)
  )
  (fp_text value "RotaryEncoder_Bourns_PEC11R-4xxxF-Sxxxx" (at 7.3 11.6) (layer "F.Fab")
    (effects (font (size 1 1) (thickness 0.15)))
    (tstamp 9356ce95-369c-4a7d-8f49-4a03c42188e2)
  )
  (fp_text user "${REFERENCE}" (at 0 -0.1 180) (layer "F.Fab")
    (effects (font (size 1 1) (thickness 0.15)))
    (tstamp 72e222a2-1faf-4332-8d73-a6c074cb3f8c)
  )
  (fp_line (start 0.75 6.8) (end 1.75 6.8) (layer "F.SilkS") (width 0.12) (tstamp 017187db-6742-4508-8ea3-b52806d85658))
  (fp_line (start 3.55 6.8) (end 6.35 6.8) (layer "F.SilkS") (width 0.12) (tstamp 0cc5c9d6-4509-4266-a60c-3535aa33f16d))
  (fp_line (start -6.35 -6.8) (end -3.5 -6.8) (layer "F.SilkS") (width 0.12) (tstamp 307e2aea-a7ec-41c8-a29a-1ce5b10bc639))
  (fp_line (start -1.75 6.8) (end -0.75 6.8) (layer "F.SilkS") (width 0.12) (tstamp 4ca71c3f-ff61-4b39-90c9-9d4339cea872))
  (fp_line (start -6.35 6.8) (end -6.35 2) (layer "F.SilkS") (width 0.12) (tstamp 4fac5ada-0743-4390-a04b-1cb905b8633c))
  (fp_line (start 3.6 -6.8) (end 6.35 -6.8) (layer "F.SilkS") (width 0.12) (tstamp 5f2d5037-3fac-494d-abc7-0a3f9c246a46))
  (fp_line (start 6.35 2) (end 6.35 6.8) (layer "F.SilkS") (width 0.12) (tstamp 73ea4f4c-f010-4a1a-bf99-cf306db75443))
  (fp_line (start -6.35 -2) (end -6.35 -6.8) (layer "F.SilkS") (width 0.12) (tstamp 7a713ad8-8d98-452a-bf0b-c23c86a6f817))
  (fp_line (start -1.5 -6.8) (end 1.5 -6.8) (layer "F.SilkS") (width 0.12) (tstamp 8a782957-f342-4adf-a7bd-e974412e6a53))
  (fp_line (start -3.55 6.8) (end -6.35 6.8) (layer "F.SilkS") (width 0.12) (tstamp b72e7e30-5643-4633-8087-5c5ce86f036e))
  (fp_line (start 6.35 -6.8) (end 6.35 -2) (layer "F.SilkS") (width 0.12) (tstamp be561c8d-ec76-4a93-b298-69ea4bd83a6c))
  (fp_line (start 3.6 6.95) (end 3.6 8.6) (layer "F.CrtYd") (width 0.05) (tstamp 07e36c4a-3969-47eb-9b19-a145cdd7aeb8))
  (fp_line (start 6.5 -1.95) (end 7.35 -1.95) (layer "F.CrtYd") (width 0.05) (tstamp 177c627b-4e89-45e5-b491-752e792e98fb))
  (fp_line (start -6.5 1.9) (end -7.35 1.9) (layer "F.CrtYd") (width 0.05) (tstamp 25f4c6d2-e2c0-48b0-ae29-8fc36e4b4a36))
  (fp_line (start 1.4 -6.95) (end 1.4 -8.1) (layer "F.CrtYd") (width 0.05) (tstamp 296c5c10-6a48-4ad2-95df-b7072621c7e7))
  (fp_line (start 6.5 -6.95) (end 6.5 -1.95) (layer "F.CrtYd") (width 0.05) (tstamp 34d34f25-8468-469f-9f0e-c479b9b0381e))
  (fp_line (start -6.5 -1.9) (end -6.5 -6.95) (layer "F.CrtYd") (width 0.05) (tstamp 40567f06-0778-455d-8e69-c700165bf902))
  (fp_line (start -1.4 -6.95) (end 1.4 -6.95) (layer "F.CrtYd") (width 0.05) (tstamp 55ab26d8-42e1-4300-a3cb-59871f0e4b9b))
  (fp_line (start 3.6 8.6) (end -3.6 8.6) (layer "F.CrtYd") (width 0.05) (tstamp 55b4c791-a2c3-4248-9134-195de08f69b2))
  (fp_line (start -3.6 8.6) (end -3.6 6.95) (layer "F.CrtYd") (width 0.05) (tstamp 5c9dda52-c922-491a-8f86-ba7e5d9c49d3))
  (fp_line (start -1.4 -8.1) (end -1.4 -6.95) (layer "F.CrtYd") (width 0.05) (tstamp 681cd80d-71e0-4fdc-8c4b-668edaa1bc16))
  (fp_line (start -7.35 1.9) (end -7.35 -1.9) (layer "F.CrtYd") (width 0.05) (tstamp 75fd2ac3-e46f-4731-812b-27a8d08a7afe))
  (fp_line (start -3.6 -6.95) (end -3.6 -8.1) (layer "F.CrtYd") (width 0.05) (tstamp 78f2c69d-69c1-4ff8-a52c-ddcb9457f6e2))
  (fp_line (start 7.35 -1.95) (end 7.35 1.9) (layer "F.CrtYd") (width 0.05) (tstamp 839352d7-302e-4238-b84f-37a49dd41360))
  (fp_line (start -6.5 6.95) (end -6.5 1.9) (layer "F.CrtYd") (width 0.05) (tstamp 95694415-1810-4a90-b868-5aeff3bec978))
  (fp_line (start -6.5 -6.95) (end -3.6 -6.95) (layer "F.CrtYd") (width 0.05) (tstamp 9755d21a-7c5c-45b8-aebc-04782a8087c7))
  (fp_line (start 3.6 -6.95) (end 6.5 -6.95) (layer "F.CrtYd") (width 0.05) (tstamp a220d1a8-eb8b-4569-a81d-8e1a1f50a7cf))
  (fp_line (start 6.5 6.95) (end 3.6 6.95) (layer "F.CrtYd") (width 0.05) (tstamp b07ed2ef-a606-4068-80e1-eeca7c8c8e88))
  (fp_line (start -3.6 6.95) (end -6.5 6.95) (layer "F.CrtYd") (width 0.05) (tstamp b873d744-d717-4763-a1e4-0060cddca8c1))
  (fp_line (start 7.35 1.9) (end 6.5 1.9) (layer "F.CrtYd") (width 0.05) (tstamp bd04bcbe-9ab4-420f-8b32-4e8547a76a10))
  (fp_line (start 1.4 -8.1) (end 3.6 -8.1) (layer "F.CrtYd") (width 0.05) (tstamp d7f04be1-72d1-4ba8-9af6-2e0cf83e4f03))
  (fp_line (start 6.5 1.9) (end 6.5 6.95) (layer "F.CrtYd") (width 0.05) (tstamp dbe8882f-89dd-4647-b3c6-ad710d95f966))
  (fp_line (start -3.6 -8.1) (end -1.4 -8.1) (layer "F.CrtYd") (width 0.05) (tstamp ed36df11-9446-4d30-924c-164502be4004))
  (fp_line (start 3.6 -8.1) (end 3.6 -6.95) (layer "F.CrtYd") (width 0.05) (tstamp ee09778d-4559-4a4b-80de-799d29a3fc32))
  (fp_line (start -7.35 -1.9) (end -6.5 -1.9) (layer "F.CrtYd") (width 0.05) (tstamp fcc4ec97-4f72-4be3-a3ee-0982237718de))
  (fp_line (start 6.25 -6.7) (end -6.25 -6.7) (layer "F.Fab") (width 0.1) (tstamp 558b35da-adbe-4535-bc0e-78fc311cb4bc))
  (fp_line (start 6.25 6.7) (end 6.25 -6.7) (layer "F.Fab") (width 0.1) (tstamp adb7c565-1335-4dfa-b9c3-c4e4ddae8176))
  (fp_line (start -6.25 6.7) (end 6.25 6.7) (layer "F.Fab") (width 0.1) (tstamp b5d07687-dc7d-4119-b3c1-a04e7e2e752f))
  (fp_line (start -6.25 -6.7) (end -6.25 6.7) (layer "F.Fab") (width 0.1) (tstamp b753b0ce-1f66-40bf-bc29-3f638789e963))
  (fp_circle (center 0 0) (end 3.7 0) (layer "F.Fab") (width 0.1) (fill none) (tstamp 1dfe962c-ee3a-4c8c-99f3-4807874618a9))
  (pad "A" thru_hole circle (at -2.5 7.5) (size 1.7 1.7) (drill 1.1) (layers *.Cu *.Mask) (tstamp 48eed661-ce3d-4ad1-8391-d744b8926da2))
  (pad "B" thru_hole circle (at 2.5 7.5) (size 1.7 1.7) (drill 1.1) (layers *.Cu *.Mask) (tstamp 04bcc274-3588-4405-b87e-b06e764f687e))
  (pad "C" thru_hole circle (at 0 7.5) (size 1.7 1.7) (drill 1.1) (layers *.Cu *.Mask) (tstamp 3fdefcca-4dc6-4755-b219-40abf4d766e0))
  (pad "S1" thru_hole circle (at -2.5 -7) (size 1.7 1.7) (drill 1.1) (layers *.Cu *.Mask) (tstamp 127ae690-cf4f-4b2e-bf14-6ed8fa825ff6))
  (pad "S2" thru_hole circle (at 2.5 -7) (size 1.7 1.7) (drill 1.1) (layers *.Cu *.Mask) (tstamp 5d45768b-da99-41a2-80a5-901392f2c99d))
  (pad "SH" thru_hole oval (at 5.6 0) (size 3 3.8) (drill oval 2 2.8) (layers *.Cu *.Mask) (tstamp 4ae8060a-e74c-40a8-8c25-8477408c0aa3))
  (pad "SH" thru_hole oval (at -5.6 0) (size 3 3.8) (drill oval 2 2.8) (layers *.Cu *.Mask) (tstamp c9317c77-538c-4cb2-8a47-cfdf89fabfec))
  (model "${KICAD6_3DMODEL_DIR}/Rotary_Encoder.3dshapes/RotaryEncoder_Bourns_Vertical_PEC12R-3xxxF-Sxxxx.wrl"
    (offset (xyz 0 0 0))
    (scale (xyz 1 1 1))
    (rotate (xyz 0 0 0))
  )
)
